<?xml version="1.0" encoding="UTF-8" standalone="no"?>
<svg
   xmlns:dc="http://purl.org/dc/elements/1.1/"
   xmlns:cc="http://creativecommons.org/ns#"
   xmlns:rdf="http://www.w3.org/1999/02/22-rdf-syntax-ns#"
   xmlns:svg="http://www.w3.org/2000/svg"
   xmlns="http://www.w3.org/2000/svg"
   xmlns:sodipodi="http://sodipodi.sourceforge.net/DTD/sodipodi-0.dtd"
   xmlns:inkscape="http://www.inkscape.org/namespaces/inkscape"
   width="210mm"
   height="297mm"
   viewBox="0 0 210 297"
   version="1.1"
   id="svg8"
   inkscape:version="1.0 (b51213c273, 2020-08-10)"
   sodipodi:docname="estados.svg">
  <defs
     id="defs2">
    <marker
       style="overflow:visible;"
       id="Arrow2Send"
       refX="0.0"
       refY="0.0"
       orient="auto"
       inkscape:stockid="Arrow2Send"
       inkscape:isstock="true">
      <path
         transform="scale(0.3) rotate(180) translate(-2.3,0)"
         d="M 8.7185878,4.0337352 L -2.2072895,0.016013256 L 8.7185884,-4.0017078 C 6.9730900,-1.6296469 6.9831476,1.6157441 8.7185878,4.0337352 z "
         style="fill-rule:evenodd;stroke-width:0.625;stroke-linejoin:round;stroke:#585858;stroke-opacity:1;fill:#585858;fill-opacity:1"
         id="path1003" />
    </marker>
    <marker
       style="overflow:visible;"
       id="marker2049"
       refX="0.0"
       refY="0.0"
       orient="auto"
       inkscape:stockid="Arrow1Mend"
       inkscape:isstock="true">
      <path
         transform="scale(0.4) rotate(180) translate(10,0)"
         style="fill-rule:evenodd;stroke:#585858;stroke-width:1pt;stroke-opacity:1;fill:#585858;fill-opacity:1"
         d="M 0.0,0.0 L 5.0,-5.0 L -12.5,0.0 L 5.0,5.0 L 0.0,0.0 z "
         id="path2047" />
    </marker>
    <marker
       style="overflow:visible;"
       id="marker2039"
       refX="0.0"
       refY="0.0"
       orient="auto"
       inkscape:stockid="Arrow1Mend"
       inkscape:isstock="true">
      <path
         transform="scale(0.4) rotate(180) translate(10,0)"
         style="fill-rule:evenodd;stroke:#000000;stroke-width:1pt;stroke-opacity:1;fill:#000000;fill-opacity:1"
         d="M 0.0,0.0 L 5.0,-5.0 L -12.5,0.0 L 5.0,5.0 L 0.0,0.0 z "
         id="path2037" />
    </marker>
    <marker
       style="overflow:visible;"
       id="marker2029"
       refX="0.0"
       refY="0.0"
       orient="auto"
       inkscape:stockid="Arrow1Mend"
       inkscape:isstock="true">
      <path
         transform="scale(0.4) rotate(180) translate(10,0)"
         style="fill-rule:evenodd;stroke:#585858;stroke-width:1pt;stroke-opacity:1;fill:#585858;fill-opacity:1"
         d="M 0.0,0.0 L 5.0,-5.0 L -12.5,0.0 L 5.0,5.0 L 0.0,0.0 z "
         id="path2027" />
    </marker>
    <marker
       style="overflow:visible;"
       id="marker2019"
       refX="0.0"
       refY="0.0"
       orient="auto"
       inkscape:stockid="Arrow1Mend"
       inkscape:isstock="true">
      <path
         transform="scale(0.4) rotate(180) translate(10,0)"
         style="fill-rule:evenodd;stroke:#585858;stroke-width:1pt;stroke-opacity:1;fill:#585858;fill-opacity:1"
         d="M 0.0,0.0 L 5.0,-5.0 L -12.5,0.0 L 5.0,5.0 L 0.0,0.0 z "
         id="path2017" />
    </marker>
    <marker
       style="overflow:visible"
       id="marker2009"
       refX="0"
       refY="0"
       orient="auto"
       inkscape:stockid="Arrow1Mend"
       inkscape:isstock="true">
      <path
         transform="matrix(-0.4,0,0,-0.4,-4,0)"
         style="fill:#585858;fill-opacity:1;fill-rule:evenodd;stroke:#585858;stroke-width:1pt;stroke-opacity:1"
         d="M 0,0 5,-5 -12.5,0 5,5 Z"
         id="path2007" />
    </marker>
    <marker
       style="overflow:visible"
       id="marker1999"
       refX="0"
       refY="0"
       orient="auto"
       inkscape:stockid="Arrow1Mend"
       inkscape:isstock="true">
      <path
         transform="matrix(-0.4,0,0,-0.4,-4,0)"
         style="fill:#585858;fill-opacity:1;fill-rule:evenodd;stroke:#585858;stroke-width:1pt;stroke-opacity:1"
         d="M 0,0 5,-5 -12.5,0 5,5 Z"
         id="path1997" />
    </marker>
    <marker
       style="overflow:visible"
       id="Arrow2Send-6"
       refX="0"
       refY="0"
       orient="auto"
       inkscape:stockid="Arrow2Send"
       inkscape:isstock="true">
      <path
         transform="matrix(-0.3,0,0,-0.3,0.69,0)"
         d="M 8.7185878,4.0337352 -2.2072895,0.01601326 8.7185884,-4.0017078 c -1.7454984,2.3720609 -1.7354408,5.6174519 -6e-7,8.035443 z"
         style="fill:#585858;fill-opacity:1;fill-rule:evenodd;stroke:#585858;stroke-width:0.625;stroke-linejoin:round;stroke-opacity:1"
         id="path1003-7" />
    </marker>
  </defs>
  <sodipodi:namedview
     id="base"
     pagecolor="#ffffff"
     bordercolor="#666666"
     borderopacity="1.0"
     inkscape:pageopacity="0.0"
     inkscape:pageshadow="2"
     inkscape:zoom="0.5"
     inkscape:cx="-261.93104"
     inkscape:cy="1871.6635"
     inkscape:document-units="mm"
     inkscape:current-layer="layer1"
     inkscape:document-rotation="0"
     showgrid="false"
     showborder="false"
     showguides="true"
     inkscape:guide-bbox="true">
    <sodipodi:guide
       position="-112.2532,-24.792512"
       orientation="0,-1"
       id="guide935" />
    <sodipodi:guide
       position="-172.15658,-49.471682"
       orientation="0,-1"
       id="guide941" />
    <sodipodi:guide
       position="-159.50063,-49.471682"
       orientation="1,0"
       id="guide1494" />
  </sodipodi:namedview>
  <metadata
     id="metadata5">
    <rdf:RDF>
      <cc:Work
         rdf:about="">
        <dc:format>image/svg+xml</dc:format>
        <dc:type
           rdf:resource="http://purl.org/dc/dcmitype/StillImage" />
        <dc:title />
      </cc:Work>
    </rdf:RDF>
  </metadata>
  <g
     inkscape:label="Capa 1"
     inkscape:groupmode="layer"
     id="layer1">
    <rect
       style="fill:#00ff66;fill-opacity:1;stroke:#585858;stroke-width:0.543264;stroke-linecap:round;stroke-miterlimit:4;stroke-dasharray:none;stroke-opacity:1;paint-order:stroke markers fill"
       id="rect939-3"
       width="88.884613"
       height="24.679171"
       x="-159.02704"
       y="526.69257"
       inkscape:export-xdpi="96"
       inkscape:export-ydpi="96" />
    <text
       xml:space="preserve"
       style="font-size:16.9482px;line-height:1.25;font-family:Uroob;-inkscape-font-specification:Uroob;word-spacing:0px;fill:#585858;fill-opacity:1;stroke-width:0.423706"
       x="-144.02335"
       y="544.00946"
       id="text861"
       inkscape:export-xdpi="96"
       inkscape:export-ydpi="96"><tspan
         sodipodi:role="line"
         id="tspan859"
         x="-144.02335"
         y="544.00946"
         style="fill:#585858;fill-opacity:1;stroke-width:0.423706">Confirmado</tspan></text>
    <rect
       style="fill:#ff0066;fill-opacity:1;stroke:#585858;stroke-width:0.543264;stroke-linecap:round;stroke-miterlimit:4;stroke-dasharray:none;stroke-opacity:1;paint-order:stroke markers fill"
       id="rect937"
       width="88.884613"
       height="24.679171"
       x="-158.75789"
       y="353.12976"
       inkscape:export-xdpi="96"
       inkscape:export-ydpi="96" />
    <text
       xml:space="preserve"
       style="font-size:16.9482px;line-height:1.25;font-family:Uroob;-inkscape-font-specification:Uroob;word-spacing:0px;fill:#585858;fill-opacity:1;stroke-width:0.423706"
       x="-139.73041"
       y="370.70413"
       id="text869"
       inkscape:export-xdpi="96"
       inkscape:export-ydpi="96"><tspan
         sodipodi:role="line"
         id="tspan867"
         x="-139.73041"
         y="370.70413"
         style="fill:#585858;fill-opacity:1;stroke-width:0.423706">Modificado</tspan></text>
    <rect
       style="fill:#ccff00;fill-opacity:1;stroke:#585858;stroke-width:0.543264;stroke-linecap:round;stroke-miterlimit:4;stroke-dasharray:none;stroke-opacity:1;paint-order:stroke markers fill"
       id="rect939"
       width="88.884613"
       height="24.679171"
       x="-159.52272"
       y="440.00803"
       inkscape:export-xdpi="96"
       inkscape:export-ydpi="96" />
    <text
       xml:space="preserve"
       style="font-size:16.9482px;line-height:1.25;font-family:Uroob;-inkscape-font-specification:Uroob;word-spacing:0px;fill:#585858;fill-opacity:1;stroke-width:0.423706"
       x="-140.32419"
       y="457.11456"
       id="text877"
       inkscape:export-xdpi="96"
       inkscape:export-ydpi="96"><tspan
         sodipodi:role="line"
         id="tspan875"
         x="-140.32419"
         y="457.11456"
         style="fill:#585858;fill-opacity:1;stroke-width:0.423706">Preparado</tspan></text>
    <path
       style="fill:#585858;fill-opacity:1;stroke:#585858;stroke-width:8.983;stroke-linecap:butt;stroke-linejoin:miter;stroke-miterlimit:4;stroke-dasharray:none;stroke-opacity:1;marker-end:url(#Arrow2Send)"
       d="m -114.49826,386.589 v 33.34736"
       id="path958"
       inkscape:export-xdpi="96"
       inkscape:export-ydpi="96" />
    <path
       style="fill:#585858;fill-opacity:1;stroke:#585858;stroke-width:8.983;stroke-linecap:butt;stroke-linejoin:miter;stroke-miterlimit:4;stroke-dasharray:none;stroke-opacity:1;marker-end:url(#Arrow2Send-6)"
       d="m -114.49826,472.22409 v 33.34736"
       id="path958-5"
       inkscape:export-xdpi="96"
       inkscape:export-ydpi="96" />
  </g>
</svg>
